…
# normalize
recipe_norm_prep<-recipe_prep %>%
#  step_poly(number_mechanics, degree = 2) %>%
  step_normalize(all_predictors())
  

# summary of recipe
summary(recipe_prep)
```

```
## # A tibble: 740 × 4
##    variable      type    role      source  
##    <chr>         <chr>   <chr>     <chr>   
##  1 timestamp     date    id        original
##  2 game_id       numeric id        original
##  3 name          nominal id        original
##  4 average       numeric id        original
##  5 baverage      numeric id        original
##  6 usersrated    numeric id        original
##  7 yearpublished numeric id        original
##  8 avgweight     numeric predictor original
##  9 minage        numeric predictor original
## 10 minplayers    numeric predictor original
## # … with 730 more rows
```
…
